{
  "relationships": [],
  "fields": [
    {
      "fieldId": 1,
      "fieldName": "location",
      "fieldType": "String"
    }
  ],
  "changelogDate": "20150908055235",
  "dto": "no",
  "pagination": "no"
}