{
  "relationships": [
    {
      "relationshipId": 1,
      "relationshipName": "productVariation",
      "relationshipFieldName": "productVariation",
      "otherEntityName": "productVariation",
      "relationshipType": "many-to-one",
      "otherEntityField": "id"
    }
  ],
  "fields": [
    {
      "fieldId": 1,
      "fieldName": "quanity",
      "fieldType": "Integer"
    },
    {
      "fieldId": 2,
      "fieldName": "active",
      "fieldType": "Boolean"
    }
  ],
  "changelogDate": "20150924101818",
  "dto": "no",
  "pagination": "no"
}