{
  "relationships": [
    {
      "relationshipId": 1,
      "relationshipName": "order",
      "relationshipFieldName": "order",
      "otherEntityName": "order",
      "relationshipType": "one-to-many",
      "otherEntityRelationshipName": "vendor"
    }
  ],
  "fields": [
    {
      "fieldId": 1,
      "fieldName": "vendorName",
      "fieldType": "String"
    },
    {
      "fieldId": 2,
      "fieldName": "phoneNo",
      "fieldType": "String"
    },
    {
      "fieldId": 3,
      "fieldName": "mobibleNo",
      "fieldType": "String"
    },
    {
      "fieldId": 4,
      "fieldName": "createDate",
      "fieldType": "DateTime"
    },
    {
      "fieldId": 5,
      "fieldName": "createDate",
      "fieldType": "DateTime"
    }
  ],
  "changelogDate": "20150908055235",
  "dto": "no",
  "pagination": "no",
  "fieldsContainDateTime": true,
  "fieldsContainCustomTime": true
}